<?xml version="1.0" encoding="UTF-8" standalone="no"?>
<svg
   xmlns:dc="http://purl.org/dc/elements/1.1/"
   xmlns:cc="http://creativecommons.org/ns#"
   xmlns:rdf="http://www.w3.org/1999/02/22-rdf-syntax-ns#"
   xmlns:svg="http://www.w3.org/2000/svg"
   xmlns="http://www.w3.org/2000/svg"
   xmlns:xlink="http://www.w3.org/1999/xlink"
   xmlns:sodipodi="http://sodipodi.sourceforge.net/DTD/sodipodi-0.dtd"
   xmlns:inkscape="http://www.inkscape.org/namespaces/inkscape"
   width="65.5"
   height="61.999996"
   viewBox="0 0 65.5 61.999996"
   preserveAspectRatio="none"
   version="1.1"
   id="svg2"
   inkscape:version="0.91 r13725"
   sodipodi:docname="piece_red.svg">
  <metadata
     id="metadata120">
    <rdf:RDF>
      <cc:Work
         rdf:about="">
        <dc:format>image/svg+xml</dc:format>
        <dc:type
           rdf:resource="http://purl.org/dc/dcmitype/StillImage" />
        <dc:title></dc:title>
      </cc:Work>
    </rdf:RDF>
  </metadata>
  <sodipodi:namedview
     pagecolor="#ffffff"
     bordercolor="#666666"
     borderopacity="1"
     objecttolerance="10"
     gridtolerance="10"
     guidetolerance="10"
     inkscape:pageopacity="0"
     inkscape:pageshadow="2"
     inkscape:window-width="1380"
     inkscape:window-height="750"
     id="namedview118"
     showgrid="false"
     inkscape:zoom="0.76625"
     inkscape:cx="-144.65195"
     inkscape:cy="-113.70555"
     inkscape:window-x="65"
     inkscape:window-y="34"
     inkscape:window-maximized="0"
     inkscape:current-layer="svg2"
     fit-margin-top="0"
     fit-margin-left="0"
     fit-margin-right="0"
     fit-margin-bottom="0" />
  <defs
     id="defs4">
    <rect
       id="lightsquare"
       x="0"
       y="0"
       width="1"
       height="1"
       style="fill:#ffeebb" />
    <rect
       id="darksquare"
       x="0"
       y="0"
       width="1"
       height="1"
       style="fill:#558822" />
    <g
       id="white">
      <ellipse
         cx="0.5"
         cy="0.5"
         rx="0.3125"
         ry="0.25999999"
         transform="translate(0,0.07)"
         style="fill:#000000;stroke:#000000;stroke-width:0.03"
         id="ellipse9" />
      <ellipse
         cx="0.5"
         cy="0.5"
         rx="0.3125"
         ry="0.25999999"
         style="fill:#fff9f4;stroke:#000000;stroke-width:0.03"
         id="ellipse11" />
    </g>
    <g
       id="black">
      <ellipse
         cx="0.5"
         cy="0.5"
         rx="0.3125"
         ry="0.25999999"
         transform="translate(0,0.07)"
         style="fill:#000000;stroke:#000000;stroke-width:0.03"
         id="ellipse14" />
      <ellipse
         cx="0.5"
         cy="0.5"
         rx="0.3125"
         ry="0.25999999"
         style="fill:#c40003;stroke:#000000;stroke-width:0.03"
         id="ellipse16" />
    </g>
    <g
       id="lightrow">
      <use
         xlink:href="#lightsquare"
         x="1"
         id="use19"
         y="0"
         width="100%"
         height="100%" />
      <use
         xlink:href="#darksquare"
         x="2"
         id="use21"
         y="0"
         width="100%"
         height="100%" />
      <use
         xlink:href="#lightsquare"
         x="3"
         id="use23"
         y="0"
         width="100%"
         height="100%" />
      <use
         xlink:href="#darksquare"
         x="4"
         id="use25"
         y="0"
         width="100%"
         height="100%" />
      <use
         xlink:href="#lightsquare"
         x="5"
         id="use27"
         y="0"
         width="100%"
         height="100%" />
      <use
         xlink:href="#darksquare"
         x="6"
         id="use29"
         y="0"
         width="100%"
         height="100%" />
      <use
         xlink:href="#lightsquare"
         x="7"
         id="use31"
         y="0"
         width="100%"
         height="100%" />
      <use
         xlink:href="#darksquare"
         x="8"
         id="use33"
         y="0"
         width="100%"
         height="100%" />
    </g>
    <g
       id="darkrow">
      <use
         xlink:href="#darksquare"
         x="1"
         id="use36"
         y="0"
         width="100%"
         height="100%" />
      <use
         xlink:href="#lightsquare"
         x="2"
         id="use38"
         y="0"
         width="100%"
         height="100%" />
      <use
         xlink:href="#darksquare"
         x="3"
         id="use40"
         y="0"
         width="100%"
         height="100%" />
      <use
         xlink:href="#lightsquare"
         x="4"
         id="use42"
         y="0"
         width="100%"
         height="100%" />
      <use
         xlink:href="#darksquare"
         x="5"
         id="use44"
         y="0"
         width="100%"
         height="100%" />
      <use
         xlink:href="#lightsquare"
         x="6"
         id="use46"
         y="0"
         width="100%"
         height="100%" />
      <use
         xlink:href="#darksquare"
         x="7"
         id="use48"
         y="0"
         width="100%"
         height="100%" />
      <use
         xlink:href="#lightsquare"
         x="8"
         id="use50"
         y="0"
         width="100%"
         height="100%" />
    </g>
  </defs>
  <use
     height="100%"
     width="100%"
     id="use84"
     y="2"
     x="7"
     xlink:href="#black"
     transform="matrix(100,0,0,100,-717.25,-222.5)" />
</svg>
